[gd_scene load_steps=4 format=2]

[ext_resource path="res://ui/ui.tscn" type="PackedScene" id=1]
[ext_resource path="res://addons/yarn_loader/yarn_player.gd" type="Script" id=2]
[ext_resource path="res://game.gd" type="Script" id=3]

[node name="Game" type="Node"]
script = ExtResource( 3 )

[node name="UI" parent="." instance=ExtResource( 1 )]

[node name="BGM" type="AudioStreamPlayer" parent="."]
volume_db = -10.097
autoplay = true

[node name="YarnPlayer" type="Node" parent="."]
script = ExtResource( 2 )
path = "res://story.yarn"
[connection signal="control_listened" from="UI" to="." method="_on_UI_control_listened"]
[connection signal="control_selected" from="UI" to="." method="_on_UI_control_selected"]
[connection signal="next_requested" from="UI" to="." method="_on_UI_next_requested"]
[connection signal="command_triggered" from="YarnPlayer" to="." method="_on_YarnPlayer_command_triggered"]
[connection signal="dialogue_triggered" from="YarnPlayer" to="." method="_on_YarnPlayer_dialogue_triggered"]
[connection signal="options_shown" from="YarnPlayer" to="." method="_on_YarnPlayer_options_shown"]
[connection signal="playback_began" from="YarnPlayer" to="." method="_on_YarnPlayer_playback_began"]
[connection signal="playback_ended" from="YarnPlayer" to="." method="_on_YarnPlayer_playback_ended"]
