[gd_resource type="DynamicFont" load_steps=2 format=2]

[ext_resource path="res://assets/fonts/courier_prime/CourierPrime-Regular.ttf" type="DynamicFontData" id=1]

[resource]
size = 24
use_mipmaps = true
use_filter = true
extra_spacing_top = 3
font_data = ExtResource( 1 )
